mCode to OMOP Standard Library • mOMOP
…
library(mOMOP)
library(chariot)
library(tidyverse)

conn <- chariot::connectAthena()

This vignette takes a look at the Value Sets in the mCode Data Dictionary to create the standard library of Oncology concepts, available for loading in this package.

The mCode valuesets are retrieved from the publicly available data dictionary.

value_sets <- get_value_sets()
value_sets

## # A tibble: 6,603 x 5
##    `Value Set Name`   `Code System` `Logical Definitio… Code  `Code Description`
##    <chr>              <chr>         <chr>               <chr> <chr>             
##  1 CancerBodyLocatio… SNOMED CT     includes codes des… <NA>  <NA>              
##  2 CancerDiseaseStat… SNOMED CT     <NA>                3636… Imaging (procedur…
##  3 CancerDiseaseStat… SNOMED CT     <NA>                2524… Histopathology te…
##  4 CancerDiseaseStat… SNOMED CT     <NA>                7110… Assessment of sym…
##  5 CancerDiseaseStat… SNOMED CT     <NA>                5880… Physical examinat…
##  6 CancerDiseaseStat… SNOMED CT     <NA>                2507… Tumor marker meas…
##  7 CancerDiseaseStat… SNOMED CT     <NA>                3863… Laboratory data i…
##  8 CancerDisorderVS   ICD-10-CM     <NA>                C000  Malignant neoplas…
##  9 CancerDisorderVS   ICD-10-CM     <NA>                C001  Malignant neoplas…
## 10 CancerDisorderVS   ICD-10-CM     <NA>                C002  Malignant neoplas…
## # … with 6,593 more rows
…
